\relax 
\@writefile{lof}{\contentsline {figure}{\numberline {1}{\ignorespaces Trikotnik, dolo\IeC {\v c}en s parametriziranimi krajevnimi vektorji}}{2}}
\@writefile{lof}{\contentsline {figure}{\numberline {2}{\ignorespaces Parametrizacija kro\IeC {\v z}nice}}{4}}
\@writefile{lof}{\contentsline {figure}{\numberline {3}{\ignorespaces Trikotnik z najve\IeC {\v c}jo mo\IeC {\v z}no plo\IeC {\v s}\IeC {\v c}ino}}{5}}
