%!PS-Adobe-3.0 EPSF-3.0
%%Title: glps_renderer figure
%%Creator: GL2PS 1.3.9, (C) 1999-2015 C. Geuzaine
%%For: Octave
%%CreationDate: Mon May 23 05:24:40 2016
%%LanguageLevel: 3
%%DocumentData: Clean7Bit
%%Pages: 1
%%BoundingBox: 0 0 576 432
%%EndComments
%%BeginProlog
/gl2psdict 64 dict def gl2psdict begin
0 setlinecap 0 setlinejoin
/tryPS3shading false def % set to false to force subdivision
/rThreshold 0.064 def % red component subdivision threshold
/gThreshold 0.034 def % green component subdivision threshold
/bThreshold 0.1 def % blue component subdivision threshold
/BD { bind def } bind def
/C  { setrgbcolor } BD
/G  { 0.082 mul exch 0.6094 mul add exch 0.3086 mul add neg 1.0 add setgray } BD
/W  { setlinewidth } BD
/FC { findfont exch /SH exch def SH scalefont setfont } BD
/SW { dup stringwidth pop } BD
/S  { FC moveto show } BD
/SBC{ FC moveto SW -2 div 0 rmoveto show } BD
/SBR{ FC moveto SW neg 0 rmoveto show } BD
/SCL{ FC moveto 0 SH -2 div rmoveto show } BD
/SCC{ FC moveto SW -2 div SH -2 div rmoveto show } BD
/SCR{ FC moveto SW neg SH -2 div rmoveto show } BD
/STL{ FC moveto 0 SH neg rmoveto show } BD
/STC{ FC moveto SW -2 div SH neg rmoveto show } BD
/STR{ FC moveto SW neg SH neg rmoveto show } BD
/FCT { FC translate 0 0 } BD
/SR  { gsave FCT moveto rotate show grestore } BD
/SBCR{ gsave FCT moveto rotate SW -2 div 0 rmoveto show grestore } BD
/SBRR{ gsave FCT moveto rotate SW neg 0 rmoveto show grestore } BD
/SCLR{ gsave FCT moveto rotate 0 SH -2 div rmoveto show grestore} BD
/SCCR{ gsave FCT moveto rotate SW -2 div SH -2 div rmoveto show grestore} BD
/SCRR{ gsave FCT moveto rotate SW neg SH -2 div rmoveto show grestore} BD
/STLR{ gsave FCT moveto rotate 0 SH neg rmoveto show grestore } BD
/STCR{ gsave FCT moveto rotate SW -2 div SH neg rmoveto show grestore } BD
/STRR{ gsave FCT moveto rotate SW neg SH neg rmoveto show grestore } BD
/P  { newpath 0.0 360.0 arc closepath fill } BD
/LS { newpath moveto } BD
/L  { lineto } BD
/LE { lineto stroke } BD
/T  { newpath moveto lineto lineto closepath fill } BD
/STshfill {
      /b1 exch def /g1 exch def /r1 exch def /y1 exch def /x1 exch def
      /b2 exch def /g2 exch def /r2 exch def /y2 exch def /x2 exch def
      /b3 exch def /g3 exch def /r3 exch def /y3 exch def /x3 exch def
      gsave << /ShadingType 4 /ColorSpace [/DeviceRGB]
      /DataSource [ 0 x1 y1 r1 g1 b1 0 x2 y2 r2 g2 b2 0 x3 y3 r3 g3 b3 ] >>
      shfill grestore } BD
/Tm { 3 -1 roll 8 -1 roll 13 -1 roll add add 3 div
      3 -1 roll 7 -1 roll 11 -1 roll add add 3 div
      3 -1 roll 6 -1 roll 9 -1 roll add add 3 div C T } BD
/STsplit {
      4 index 15 index add 0.5 mul
      4 index 15 index add 0.5 mul
      4 index 15 index add 0.5 mul
      4 index 15 index add 0.5 mul
      4 index 15 index add 0.5 mul
      5 copy 5 copy 25 15 roll
      9 index 30 index add 0.5 mul
      9 index 30 index add 0.5 mul
      9 index 30 index add 0.5 mul
      9 index 30 index add 0.5 mul
      9 index 30 index add 0.5 mul
      5 copy 5 copy 35 5 roll 25 5 roll 15 5 roll
      4 index 10 index add 0.5 mul
      4 index 10 index add 0.5 mul
      4 index 10 index add 0.5 mul
      4 index 10 index add 0.5 mul
      4 index 10 index add 0.5 mul
      5 copy 5 copy 40 5 roll 25 5 roll 15 5 roll 25 5 roll
      STnoshfill STnoshfill STnoshfill STnoshfill } BD
/STnoshfill {
      2 index 8 index sub abs rThreshold gt
      { STsplit }
      { 1 index 7 index sub abs gThreshold gt
        { STsplit }
        { dup 6 index sub abs bThreshold gt
          { STsplit }
          { 2 index 13 index sub abs rThreshold gt
            { STsplit }
            { 1 index 12 index sub abs gThreshold gt
              { STsplit }
              { dup 11 index sub abs bThreshold gt
                { STsplit }
                { 7 index 13 index sub abs rThreshold gt
                  { STsplit }
                  { 6 index 12 index sub abs gThreshold gt
                    { STsplit }
                    { 5 index 11 index sub abs bThreshold gt
                      { STsplit }
                      { Tm }
                      ifelse }
                    ifelse }
                  ifelse }
                ifelse }
              ifelse }
            ifelse }
          ifelse }
        ifelse }
      ifelse } BD
tryPS3shading
{ /shfill where
  { /ST { STshfill } BD }
  { /ST { STnoshfill } BD }
  ifelse }
{ /ST { STnoshfill } BD }
ifelse
end
%%EndProlog
%%BeginSetup
/DeviceRGB setcolorspace
gl2psdict begin
%%EndSetup
%%Page: 1 1
%%BeginPageSetup
%%EndPageSetup
mark
gsave
1.0 1.0 scale
1 1 1 C
78.03 399.6 518.13 47.52 78.03 47.52 T
78.03 399.6 518.13 399.6 518.13 47.52 T
0.5 W
[16 0] 0 setdash
0 0 0 C
78.03 47.52 LS
518.13 47.52 LE
78.03 399.6 LS
518.13 399.6 LE
78.03 47.52 LS
78.03 399.6 LE
518.13 47.52 LS
518.13 399.6 LE
[0 3 1 3 1 3 1 3 1 0] 0 setdash
128.548 47.52 LS
128.548 399.6 LE
193.749 47.52 LS
193.749 399.6 LE
258.951 47.52 LS
258.951 399.6 LE
324.152 47.52 LS
324.152 399.6 LE
389.354 47.52 LS
389.354 399.6 LE
454.555 47.52 LS
454.555 399.6 LE
[16 0] 0 setdash
128.548 47.52 LS
128.548 51.985 LE
128.548 399.6 LS
128.548 395.135 LE
193.749 47.52 LS
193.749 51.985 LE
193.749 399.6 LS
193.749 395.135 LE
258.951 47.52 LS
258.951 51.985 LE
258.951 399.6 LS
258.951 395.135 LE
324.152 47.52 LS
324.152 51.985 LE
324.152 399.6 LS
324.152 395.135 LE
389.354 47.52 LS
389.354 51.985 LE
389.354 399.6 LS
389.354 395.135 LE
454.555 47.52 LS
454.555 51.985 LE
454.555 399.6 LS
454.555 395.135 LE
[0 3 1 3 1 3 1 3 1 0] 0 setdash
78.03 73.5973 LS
518.13 73.5973 LE
78.03 138.799 LS
518.13 138.799 LE
78.03 204 LS
518.13 204 LE
78.03 269.202 LS
518.13 269.202 LE
78.03 334.403 LS
518.13 334.403 LE
[16 0] 0 setdash
78.03 73.5973 LS
82.495 73.5973 LE
518.13 73.5973 LS
513.665 73.5973 LE
78.03 138.799 LS
82.495 138.799 LE
518.13 138.799 LS
513.665 138.799 LE
78.03 204 LS
82.495 204 LE
518.13 204 LS
513.665 204 LE
78.03 269.202 LS
82.495 269.202 LE
518.13 269.202 LS
513.665 269.202 LE
78.03 334.403 LS
82.495 334.403 LE
518.13 334.403 LS
513.665 334.403 LE
(-10) 128.548 42.5189 10 /Helvetica STC
(-5) 193.749 42.5189 10 /Helvetica STC
(0) 258.951 42.5189 10 /Helvetica STC
(5) 324.152 42.5189 10 /Helvetica STC
(10) 389.354 42.5189 10 /Helvetica STC
(15) 454.555 42.5189 10 /Helvetica STC
(-5) 73.0289 73.5974 10 /Helvetica SCR
(0) 73.0289 138.799 10 /Helvetica SCR
(5) 73.0289 204 10 /Helvetica SCR
(10) 73.0289 269.202 10 /Helvetica SCR
(15) 73.0289 334.403 10 /Helvetica SCR
0.733333 1 0.72549 C
141.787 250.322 379.816 56.6215 396.842 364.495 T
[] 0 setdash
0 0 1 C
441.515 151.839 LS
441.463 155.132 L
441.307 158.422 L
441.048 161.706 L
440.684 164.98 L
440.218 168.24 L
439.649 171.484 L
438.978 174.709 L
438.205 177.911 L
437.331 181.086 L
436.358 184.233 L
435.286 187.348 L
434.116 190.426 L
432.85 193.467 L
431.488 196.466 L
430.032 199.421 L
428.484 202.328 L
426.845 205.184 L
425.116 207.988 L
423.3 210.736 L
421.397 213.424 L
419.411 216.052 L
417.343 218.616 L
415.195 221.112 L
412.969 223.54 L
410.668 225.897 L
408.294 228.179 L
405.848 230.386 L
403.334 232.514 L
400.755 234.562 L
398.112 236.527 L
395.408 238.408 L
392.646 240.203 L
389.829 241.909 L
386.959 243.526 L
384.04 245.051 L
381.074 246.484 L
378.064 247.822 L
375.014 249.064 L
371.926 250.21 L
368.803 251.257 L
365.649 252.206 L
362.466 253.054 L
359.258 253.801 L
356.029 254.447 L
352.78 254.991 L
349.516 255.431 L
346.24 255.769 L
342.954 256.002 L
339.663 256.132 L
336.369 256.158 L
333.077 256.08 L
329.788 255.898 L
326.507 255.613 L
323.236 255.224 L
319.979 254.732 L
316.74 254.137 L
313.52 253.44 L
310.325 252.642 L
307.156 251.744 L
304.017 250.746 L
300.911 249.649 L
297.842 248.455 L
294.811 247.165 L
291.823 245.779 L
288.88 244.3 L
285.985 242.729 L
283.142 241.067 L
280.352 239.316 L
277.618 237.478 L
274.945 235.555 L
272.333 233.548 L
269.786 231.46 L
267.306 229.292 L
264.896 227.047 L
262.557 224.728 L
260.294 222.335 L
258.107 219.872 L
255.998 217.342 L
253.971 214.746 L
252.026 212.088 L
250.167 209.369 L
248.394 206.593 L
246.71 203.762 L
245.116 200.88 L
243.614 197.949 L
242.205 194.972 L
240.89 191.952 L
239.672 188.892 L
238.551 185.795 L
237.528 182.664 L
236.605 179.502 L
235.782 176.313 L
235.06 173.099 L
234.439 169.864 L
233.922 166.612 L
233.507 163.344 L
233.195 160.065 L
232.987 156.778 L
232.883 153.486 L
232.883 150.192 L
232.987 146.9 L
233.195 143.613 L
233.507 140.334 L
233.922 137.067 L
234.439 133.814 L
235.06 130.579 L
235.782 127.365 L
236.605 124.176 L
237.528 121.015 L
238.551 117.884 L
239.672 114.787 L
240.89 111.727 L
242.205 108.706 L
243.614 105.729 L
245.116 102.798 L
246.71 99.9158 L
248.394 97.0853 L
250.167 94.3094 L
252.026 91.5908 L
253.971 88.9322 L
255.998 86.3364 L
258.107 83.8058 L
260.294 81.3431 L
262.557 78.9506 L
264.896 76.6308 L
267.306 74.386 L
269.786 72.2184 L
272.333 70.1301 L
274.945 68.1233 L
277.618 66.2 L
280.352 64.362 L
283.142 62.6112 L
285.985 60.9493 L
288.88 59.3781 L
291.823 57.899 L
294.811 56.5136 L
297.842 55.2232 L
300.911 54.0291 L
304.017 52.9324 L
307.156 51.9344 L
310.325 51.036 L
313.52 50.2381 L
316.74 49.5414 L
319.979 48.9467 L
323.236 48.4546 L
326.507 48.0655 L
329.788 47.7799 L
333.077 47.598 L
336.369 47.52 L
339.663 47.546 L
342.954 47.6759 L
346.24 47.9097 L
349.516 48.2471 L
352.78 48.6878 L
356.029 49.2313 L
359.258 49.877 L
362.466 50.6244 L
365.649 51.4727 L
368.803 52.4211 L
371.926 53.4685 L
375.014 54.614 L
378.064 55.8564 L
381.074 57.1945 L
384.04 58.6269 L
386.959 60.1523 L
389.829 61.769 L
392.646 63.4756 L
395.408 65.2702 L
398.112 67.1511 L
400.755 69.1164 L
403.334 71.1642 L
405.848 73.2924 L
408.294 75.4989 L
410.668 77.7815 L
412.969 80.1379 L
415.195 82.5658 L
417.343 85.0628 L
419.411 87.6263 L
421.397 90.2538 L
423.3 92.9427 L
425.116 95.6903 L
426.845 98.4939 L
428.484 101.351 L
430.032 104.258 L
431.488 107.212 L
432.85 110.211 L
434.116 113.252 L
435.286 116.331 L
436.358 119.445 L
437.331 122.592 L
438.205 125.768 L
438.978 128.969 L
439.649 132.194 L
440.218 135.438 L
440.684 138.699 L
441.048 141.972 L
441.307 145.256 L
441.463 148.546 L
441.515 151.839 LE
1 0 0 C
382.816 56.6215 LS
382.243 54.8582 L
380.743 53.7684 L
378.889 53.7684 L
377.389 54.8582 L
376.816 56.6215 L
377.389 58.3849 L
378.889 59.4747 L
380.743 59.4747 L
382.243 58.3849 L
382.816 56.6215 LE
0 0 0 C
(t=-1.1499) 382.658 50.2737 10 /Helvetica SCL
0 0 1 C
454.555 243.121 LS
454.477 248.061 L
454.244 252.996 L
453.854 257.921 L
453.309 262.832 L
452.61 267.723 L
451.756 272.589 L
450.749 277.426 L
449.59 282.229 L
448.28 286.992 L
446.82 291.712 L
445.212 296.384 L
443.457 301.002 L
441.558 305.563 L
439.515 310.061 L
437.331 314.493 L
435.009 318.854 L
432.55 323.139 L
429.957 327.344 L
427.232 331.466 L
424.379 335.499 L
421.4 339.441 L
418.297 343.286 L
415.075 347.031 L
411.737 350.673 L
408.285 354.208 L
404.723 357.632 L
401.055 360.941 L
397.284 364.134 L
393.415 367.205 L
389.45 370.153 L
385.394 372.975 L
381.251 375.667 L
377.026 378.226 L
372.721 380.652 L
368.342 382.94 L
363.894 385.088 L
359.379 387.095 L
354.803 388.959 L
350.171 390.677 L
345.487 392.248 L
340.756 393.671 L
335.982 394.943 L
331.17 396.064 L
326.326 397.033 L
321.453 397.848 L
316.557 398.509 L
311.642 399.015 L
306.714 399.366 L
301.777 399.561 L
296.837 399.6 L
291.897 399.483 L
286.964 399.21 L
282.042 398.782 L
277.137 398.198 L
272.251 397.46 L
267.392 396.568 L
262.563 395.523 L
257.77 394.326 L
253.017 392.978 L
248.308 391.481 L
243.65 389.836 L
239.045 388.045 L
234.499 386.11 L
230.017 384.031 L
225.603 381.813 L
221.261 379.456 L
216.995 376.963 L
212.81 374.337 L
208.71 371.58 L
204.7 368.695 L
200.782 365.685 L
196.961 362.552 L
193.242 359.301 L
189.626 355.934 L
186.119 352.454 L
182.723 348.865 L
179.443 345.171 L
176.28 341.375 L
173.239 337.482 L
170.322 333.494 L
167.533 329.416 L
164.874 325.252 L
162.348 321.006 L
159.957 316.683 L
157.703 312.286 L
155.59 307.82 L
153.618 303.29 L
151.791 298.7 L
150.109 294.054 L
148.575 289.358 L
147.19 284.616 L
145.955 279.832 L
144.872 275.011 L
143.942 270.159 L
143.165 265.28 L
142.543 260.379 L
142.076 255.46 L
141.764 250.53 L
141.608 245.592 L
141.608 240.651 L
141.764 235.713 L
142.076 230.782 L
142.543 225.864 L
143.165 220.962 L
143.942 216.083 L
144.872 211.231 L
145.955 206.411 L
147.19 201.627 L
148.575 196.884 L
150.109 192.188 L
151.791 187.543 L
153.618 182.952 L
155.59 178.422 L
157.703 173.956 L
159.957 169.56 L
162.348 165.236 L
164.874 160.99 L
167.533 156.827 L
170.322 152.749 L
173.239 148.761 L
176.28 144.867 L
179.443 141.071 L
182.723 137.377 L
186.119 133.788 L
189.626 130.309 L
193.242 126.942 L
196.961 123.69 L
200.782 120.558 L
204.7 117.548 L
208.71 114.662 L
212.81 111.905 L
216.995 109.279 L
221.261 106.787 L
225.603 104.43 L
230.017 102.211 L
234.499 100.133 L
239.045 98.1973 L
243.65 96.4061 L
248.308 94.7612 L
253.017 93.2642 L
257.77 91.9165 L
262.563 90.7196 L
267.392 89.6746 L
272.251 88.7826 L
277.137 88.0444 L
282.042 87.4608 L
286.964 87.0323 L
291.897 86.7595 L
296.837 86.6425 L
301.777 86.6815 L
306.714 86.8765 L
311.642 87.2271 L
316.557 87.7332 L
321.453 88.3942 L
326.326 89.2094 L
331.17 90.1781 L
335.982 91.2992 L
340.756 92.5716 L
345.487 93.9941 L
350.171 95.5653 L
354.803 97.2835 L
359.379 99.1471 L
363.894 101.154 L
368.342 103.303 L
372.721 105.591 L
377.026 108.016 L
381.251 110.576 L
385.394 113.268 L
389.45 116.089 L
393.415 119.037 L
397.284 122.109 L
401.055 125.301 L
404.723 128.611 L
408.285 132.035 L
411.737 135.569 L
415.075 139.211 L
418.297 142.957 L
421.4 146.802 L
424.379 150.743 L
427.232 154.777 L
429.957 158.898 L
432.55 163.103 L
435.009 167.389 L
437.331 171.749 L
439.515 176.181 L
441.558 180.68 L
443.457 185.24 L
445.212 189.859 L
446.82 194.53 L
448.28 199.25 L
449.59 204.014 L
450.749 208.817 L
451.756 213.654 L
452.61 218.52 L
453.309 223.411 L
453.854 228.321 L
454.244 233.246 L
454.477 238.181 L
454.555 243.121 LE
1 0 0 C
399.842 364.495 LS
399.269 362.732 L
397.769 361.642 L
395.915 361.642 L
394.415 362.732 L
393.842 364.495 L
394.415 366.258 L
395.915 367.348 L
397.769 367.348 L
399.269 366.258 L
399.842 364.495 LE
0 0 0 C
(u=0.887718) 403.426 372.587 10 /Helvetica SCL
0 0 1 C
402.394 243.121 LS
402.329 247.238 L
402.134 251.35 L
401.81 255.455 L
401.356 259.547 L
400.773 263.622 L
400.061 267.678 L
399.222 271.708 L
398.256 275.711 L
397.165 279.68 L
395.948 283.614 L
394.608 287.507 L
393.146 291.355 L
391.563 295.156 L
389.86 298.905 L
388.041 302.598 L
386.105 306.232 L
384.056 309.803 L
381.895 313.307 L
379.625 316.742 L
377.247 320.103 L
374.764 323.387 L
372.179 326.592 L
369.494 329.713 L
366.712 332.748 L
363.835 335.693 L
360.867 338.547 L
357.811 341.305 L
354.668 343.965 L
351.444 346.525 L
348.14 348.981 L
344.76 351.332 L
341.308 353.576 L
337.786 355.709 L
334.199 357.73 L
330.55 359.637 L
326.843 361.427 L
323.081 363.1 L
319.268 364.653 L
315.407 366.085 L
311.504 367.394 L
307.561 368.579 L
303.583 369.64 L
299.573 370.574 L
295.536 371.381 L
291.475 372.06 L
287.395 372.611 L
283.3 373.033 L
279.193 373.325 L
275.079 373.488 L
270.962 373.52 L
266.846 373.423 L
262.735 373.195 L
258.633 372.838 L
254.545 372.352 L
250.474 371.737 L
246.425 370.993 L
242.401 370.123 L
238.406 369.125 L
234.445 368.002 L
230.522 366.755 L
226.639 365.384 L
222.802 363.891 L
219.014 362.278 L
215.279 360.546 L
211.6 358.698 L
207.982 356.734 L
204.427 354.656 L
200.94 352.468 L
197.523 350.17 L
194.181 347.766 L
190.916 345.258 L
187.733 342.647 L
184.633 339.938 L
181.62 337.132 L
178.697 334.232 L
175.867 331.241 L
173.133 328.163 L
170.498 325 L
167.964 321.755 L
165.533 318.432 L
163.209 315.033 L
160.993 311.564 L
158.888 308.025 L
156.895 304.423 L
155.017 300.759 L
153.256 297.037 L
151.613 293.262 L
150.09 289.437 L
148.689 285.565 L
147.411 281.652 L
146.256 277.7 L
145.227 273.713 L
144.325 269.696 L
143.55 265.653 L
142.902 261.587 L
142.384 257.503 L
141.994 253.404 L
141.734 249.295 L
141.605 245.18 L
141.605 241.063 L
141.734 236.948 L
141.994 232.839 L
142.384 228.74 L
142.902 224.656 L
143.55 220.59 L
144.325 216.546 L
145.227 212.529 L
146.256 208.543 L
147.411 204.591 L
148.689 200.677 L
150.09 196.806 L
151.613 192.981 L
153.256 189.205 L
155.017 185.484 L
156.895 181.82 L
158.888 178.217 L
160.993 174.679 L
163.209 171.209 L
165.533 167.811 L
167.964 164.488 L
170.498 161.243 L
173.133 158.08 L
175.867 155.001 L
178.697 152.011 L
181.62 149.111 L
184.633 146.305 L
187.733 143.595 L
190.916 140.985 L
194.181 138.476 L
197.523 136.072 L
200.94 133.775 L
204.427 131.586 L
207.982 129.509 L
211.6 127.545 L
215.279 125.696 L
219.014 123.964 L
222.802 122.351 L
226.639 120.859 L
230.522 119.488 L
234.445 118.24 L
238.406 117.117 L
242.401 116.12 L
246.425 115.249 L
250.474 114.506 L
254.545 113.891 L
258.633 113.404 L
262.735 113.047 L
266.846 112.82 L
270.962 112.722 L
275.079 112.755 L
279.193 112.917 L
283.3 113.209 L
287.395 113.631 L
291.475 114.182 L
295.536 114.861 L
299.573 115.669 L
303.583 116.603 L
307.561 117.663 L
311.504 118.849 L
315.407 120.158 L
319.268 121.59 L
323.081 123.143 L
326.843 124.815 L
330.55 126.606 L
334.199 128.513 L
337.786 130.534 L
341.308 132.667 L
344.76 134.91 L
348.14 137.261 L
351.444 139.718 L
354.668 142.278 L
357.811 144.938 L
360.867 147.696 L
363.835 150.549 L
366.712 153.495 L
369.494 156.53 L
372.179 159.651 L
374.764 162.855 L
377.247 166.14 L
379.625 169.501 L
381.895 172.935 L
384.056 176.44 L
386.105 180.011 L
388.041 183.645 L
389.86 187.338 L
391.563 191.086 L
393.146 194.887 L
394.608 198.736 L
395.948 202.629 L
397.165 206.562 L
398.256 210.532 L
399.222 214.534 L
400.061 218.565 L
400.773 222.62 L
401.356 226.696 L
401.81 230.788 L
402.134 234.892 L
402.329 239.005 L
402.394 243.121 LE
1 0 0 C
144.787 250.322 LS
144.214 248.558 L
142.714 247.468 L
140.86 247.468 L
139.36 248.558 L
138.787 250.322 L
139.36 252.085 L
140.86 253.175 L
142.714 253.175 L
144.214 252.085 L
144.787 250.322 LE
0 0 0 C
(v=3.08635) 133.107 250.802 10 /Helvetica SCR
396.842 364.495 LS
379.816 56.6215 L
141.787 250.322 L
396.842 364.495 LE
grestore
showpage
cleartomark
%%PageTrailer
%%Trailer
end
%%EOF
